{
  "executionRoleArn": "arn:aws:iam::953996095285:role/ecsTaskExecutionRole",
  "containerDefinitions": [
    {
      "logConfiguration": {
        "logDriver": "awslogs",
        "options": {
          "awslogs-group": "/ecs/td-spring-api",
          "awslogs-region": "us-east-1",
          "awslogs-stream-prefix": "ecs"
        }
      },
      "portMappings": [
        {
          "hostPort": 3001,
          "protocol": "tcp",
          "containerPort": 3001
        }
      ],
      "cpu": 0,
      "environment": [],
      "mountPoints": [],
      "volumesFrom": [],
      "image": "953996095285.dkr.ecr.us-east-1.amazonaws.com/resultsb:latest",
      "name": "c-spring-api"
    }
  ],
  "placementConstraints": [],
  "memory": "512",
  "family": "td-spring-api",

  "requiresCompatibilities": [
    "FARGATE"
  ],
  "networkMode": "awsvpc",
  "cpu": "256",
  "volumes": []
}